Phase 2: Simulation/mastermind_tb.vcd
$date
	Thu Jan 01 17:51:11 2026
$end
$version
	Icarus Verilog
$end
$timescale
	1s
$end
$scope module mastermind_tb $end
$var wire 5 ! cState [4:0] $end
$var wire 7 " SSD3 [6:0] $end
$var wire 7 # SSD2 [6:0] $end
$var wire 7 $ SSD1 [6:0] $end
$var wire 7 % SSD0 [6:0] $end
$var wire 8 & LEDX [7:0] $end
$var parameter 64 ' FP $end
$var parameter 32 ( HP $end
$var reg 1 ) clk $end
$var reg 1 * enterA $end
$var reg 1 + enterB $end
$var reg 3 , letterIn [2:0] $end
$var reg 1 - rst $end
$scope module dut $end
$var wire 1 ) clk $end
$var wire 1 * enterA $end
$var wire 1 + enterB $end
$var wire 3 . letterIn [2:0] $end
$var wire 1 - rst $end
$var wire 1 / timed $end
$var parameter 7 0 letter_A $end
$var parameter 7 1 letter_C $end
$var parameter 7 2 letter_Dash $end
$var parameter 7 3 letter_E $end
$var parameter 7 4 letter_F $end
$var parameter 7 5 letter_H $end
$var parameter 7 6 letter_L $end
$var parameter 7 7 letter_P $end
$var parameter 7 8 letter_U $end
$var parameter 7 9 letter_b $end
$var parameter 7 : letter_one $end
$var parameter 7 ; letter_three $end
$var parameter 7 < letter_two $end
$var parameter 7 = letter_zero $end
$var parameter 5 > s0_idle $end
$var parameter 5 ? s10_codeBreakerInput $end
$var parameter 5 @ s11_displayGuess $end
$var parameter 5 A s12_comparison $end
$var parameter 5 B s13_comparison2 $end
$var parameter 5 C s14_comparison3 $end
$var parameter 5 D s15_comparison4 $end
$var parameter 5 E s16_correctnessCheck $end
$var parameter 5 F s17_displayCode $end
$var parameter 5 G s18_noLivesLeft $end
$var parameter 5 H s19_correctNum $end
$var parameter 5 I s1_displayScores $end
$var parameter 5 J s20_ClickBTN0 $end
$var parameter 5 K s21_ClickBTN3 $end
$var parameter 5 L s22_displayScores2 $end
$var parameter 5 M s23_emptyScreen $end
$var parameter 5 N s2_showActivePlayer $end
$var parameter 5 O s3_codeMakerStart $end
$var parameter 5 P s4_codeMakerInput $end
$var parameter 5 Q s5_displayNum $end
$var parameter 5 R s6_changeActivePlayer $end
$var parameter 5 S s7_displayActivePlayer $end
$var parameter 5 T s8_displayLives $end
$var parameter 5 U s9_codeBreakerStart $end
$var reg 8 V LEDX [7:0] $end
$var reg 7 W SSD0 [6:0] $end
$var reg 7 X SSD1 [6:0] $end
$var reg 7 Y SSD2 [6:0] $end
$var reg 7 Z SSD3 [6:0] $end
$var reg 7 [ activePlayer [6:0] $end
$var reg 5 \ cState [4:0] $end
$var reg 5 ] current_state [4:0] $end
$var reg 4 ^ equality [3:0] $end
$var reg 3 _ guess1 [2:0] $end
$var reg 3 ` guess2 [2:0] $end
$var reg 3 a guess3 [2:0] $end
$var reg 3 b guess4 [2:0] $end
$var reg 2 c guessCount [1:0] $end
$var reg 2 d lives [1:0] $end
$var reg 3 e num1 [2:0] $end
$var reg 3 f num2 [2:0] $end
$var reg 3 g num3 [2:0] $end
$var reg 3 h num4 [2:0] $end
$var reg 2 i numCount [1:0] $end
$var reg 2 j scoreA [1:0] $end
$var reg 2 k scoreB [1:0] $end
$var reg 1 l start_timer $end
$scope module timer1 $end
$var wire 1 ) clk $end
$var wire 1 - reset $end
$var wire 1 l start $end
$var parameter 7 m TIME_LIMIT $end
$var reg 7 n counter [6:0] $end
$var reg 1 o counting $end
$var reg 1 / timeout $end
$upscope $end
$upscope $end
$upscope $end
$enddefinitions $end
$comment Show the parameter values. $end
$dumpall
b100 m
b1001 U
b1000 T
b111 S
b110 R
b101 Q
b100 P
b11 O
b10 N
b10111 M
b10110 L
b10101 K
b10100 J
b1 I
b10011 H
b10010 G
b10001 F
b10000 E
b1111 D
b1110 C
b1101 B
b1100 A
b1011 @
b1010 ?
b0 >
b111111 =
b1011011 <
b1001111 ;
b110 :
b1111100 9
b111110 8
b1110011 7
b111000 6
b1100110 5
b1110001 4
b1111001 3
b1 2
b111001 1
b1110111 0
b101 (
b1010 '
$end
#0
$dumpvars
0o
b0 n
xl
bx k
bx j
bx i
bx h
bx g
bx f
bx e
bx d
bx c
bx b
bx a
bx `
bx _
bx ^
b0 ]
b0 \
bx [
b0 Z
b1110111 Y
b1 X
b1111100 W
b0 V
0/
b0 .
0-
b0 ,
0+
0*
0)
b0 &
b1111100 %
b1 $
b1110111 #
b0 "
b0 !
$end
#5
b1 n
b0 ^
b11 d
b0 c
b0 b
b0 a
b0 `
b0 _
b0 i
b0 h
b0 g
b0 f
b0 e
b0 k
b0 j
b0 [
1)
#10
0)
#15
b10 n
1)
#20
0)
#25
b111111 %
b111111 W
b111111 #
b111111 Y
b1 !
b1 \
b1 ]
b1110111 [
b11 n
1l
1)
1*
1-
#30
0)
#35
b100 n
1o
1)
#40
0)
#45
1/
1)
#50
0)
#55
b1110111 %
b1110111 W
b1110011 #
b1110011 Y
b10 !
b10 \
b10 ]
1)
0*
#60
0)
#65
b11 !
b11 \
b11 ]
0l
1)
#70
0)
#75
1)
#80
0)
#85
1)
#90
0)
#95
1)
#100
0)
#105
1)
#110
0)
#115
b100 !
b100 \
b100 ]
1)
1*
b10 ,
b10 .
#120
0)
#125
b111001 "
b111001 Z
b101 !
b101 \
b101 ]
b1 i
b10 e
1)
#130
0)
#135
1)
#140
0)
#145
1)
#150
0)
#155
1)
#160
0)
0*
#165
b11 !
b11 \
b11 ]
1)
#170
0)
#175
1)
#180
0)
#185
1)
#190
0)
#195
1)
#200
0)
#205
b100 !
b100 \
b100 ]
1)
1*
b0 ,
b0 .
#210
0)
#215
1)
#220
0)
#225
1)
#230
0)
#235
1)
#240
0)
#245
1)
#250
0)
0*
#255
1)
#260
0)
#265
1)
#270
0)
#275
1)
#280
0)
#285
1)
#290
0)
#295
b111001 #
b111001 Y
b1 "
b1 Z
b101 !
b101 \
b101 ]
b10 i
b10 f
1)
1*
b10 ,
b10 .
#300
0)
#305
1)
#310
0)
#315
1)
#320
0)
#325
1)
#330
0)
#335
1)
#340
0)
0*
#345
b11 !
b11 \
b11 ]
1)
#350
0)
#355
1)
#360
0)
#365
1)
1+
#370
0)
#375
1)
#380
0)
#385
1)
#390
0)
0+
#395
1)
#400
0)
#405
1)
#410
0)
#415
1)
#420
0)
#425
1)
#430
0)
#435
b100 !
b100 \
b100 ]
1)
1*
#440
0)
#445
b111001 $
b111001 X
b1 #
b1 Y
b101 !
b101 \
b101 ]
b11 i
b10 g
1)
#450
0)
#455
1)
#460
0)
#465
1)
#470
0)
#475
1)
#480
0)
0*
#485
b11 !
b11 \
b11 ]
1)
#490
0)
#495
1)
#500
0)
#505
1)
#510
0)
#515
1)
#520
0)
#525
b100 !
b100 \
b100 ]
1)
1*
#530
0)
#535
b101 !
b101 \
b101 ]
b0 i
b10 h
1)
#540
0)
#545
1)
#550
0)
#555
1)
#560
0)
#565
1)
#570
0)
#575
1)
#580
0)
0*
#585
b110 !
b110 \
b110 ]
1)
#590
0)
#595
b1111100 %
b1111100 W
b1 $
b1 X
b1110011 #
b1110011 Y
b111 !
b111 \
b111 ]
b1111100 [
1l
1)
#600
0)
#605
b1001111 %
b1001111 W
b111000 #
b111000 Y
b1000 !
b1000 \
b1000 ]
1l
1)
#610
0)
#615
b1001 !
b1001 \
b1001 ]
0l
1)
#620
0)
#625
1)
#630
0)
#635
1)
#640
0)
#645
1)
#650
0)
#655
1)
#660
0)
#665
1)
#670
0)
#675
1)
#680
0)
#685
1)
#690
0)
#695
1)
#700
0)
#705
1)
#710
0)
#715
1)
#720
0)
#725
1)
#730
0)
#735
1)
#740
0)
1+
#745
b1010 !
b1010 \
b1010 ]
1)
#750
0)
#755
b111001 "
b111001 Z
b1011 !
b1011 \
b1011 ]
b1 c
b10 _
1)
#760
0)
#765
1)
#770
0)
#775
1)
#780
0)
#785
b1001 !
b1001 \
b1001 ]
1)
0+
#790
0)
#795
1)
#800
0)
#805
1)
#810
0)
#815
1)
#820
0)
#825
1)
#830
0)
1+
#835
b1010 !
b1010 \
b1010 ]
1)
#840
0)
#845
b111001 #
b111001 Y
b1011 !
b1011 \
b1011 ]
b10 c
b10 `
1)
#850
0)
#855
1)
#860
0)
#865
1)
#870
0)
#875
b1001 !
b1001 \
b1001 ]
1)
0+
#880
0)
#885
1)
#890
0)
#895
1)
#900
0)
#905
1)
#910
0)
#915
1)
#920
0)
1+
b0 ,
b0 .
#925
b1010 !
b1010 \
b1010 ]
1)
#930
0)
#935
1)
#940
0)
#945
1)
#950
0)
#955
1)
#960
0)
#965
1)
0+
#970
0)
#975
1)
#980
0)
#985
1)
#990
0)
#995
1)
#1000
0)
#1005
1)
#1010
0)
1+
#1015
1)
#1020
0)
#1025
1)
#1030
0)
#1035
1)
#1040
0)
#1045
1)
#1050
0)
#1055
b111001 $
b111001 X
b1011 !
b1011 \
b1011 ]
b11 c
b10 a
1)
b10 ,
b10 .
0+
#1060
0)
#1065
b1001 !
b1001 \
b1001 ]
1)
#1070
0)
#1075
1)
#1080
0)
#1085
1)
#1090
0)
#1095
1)
#1100
0)
1+
#1105
b1010 !
b1010 \
b1010 ]
1)
#1110
0)
#1115
b1011 !
b1011 \
b1011 ]
b0 c
b10 b
1)
#1120
0)
#1125
1)
#1130
0)
#1135
1)
#1140
0)
#1145
1)
#1150
0)
0+
#1155
b11000000 &
b11000000 V
b1100 !
b1100 \
b1100 ]
1)
#1160
0)
#1165
b11110000 &
b11110000 V
b1101 !
b1101 \
b1101 ]
b1000 ^
1)
#1170
0)
#1175
b11111100 &
b11111100 V
b1110 !
b1110 \
b1110 ]
b1100 ^
1)
#1180
0)
#1185
b11111111 &
b11111111 V
b1111 !
b1111 \
b1111 ]
b1110 ^
1)
#1190
0)
#1195
b10000 !
b10000 \
b10000 ]
b1111 ^
1)
#1200
0)
1+
#1205
b10011 !
b10011 \
b10011 ]
1)
#1210
0)
#1215
b0 &
b0 V
b110 %
b110 W
b1 $
b1 X
b111111 #
b111111 Y
b1 !
b1 \
b1 ]
b1 k
1l
1)
#1220
0)
#1225
b1111100 %
b1111100 W
b1110011 #
b1110011 Y
b10 !
b10 \
b10 ]
1)
#1230
0)
#1235
b11 !
b11 \
b0 h
b0 g
b0 f
b0 e
b11 ]
0l
1)
#1240
0)
0+
#1245
1)
#1250
0)
#1255
1)
#1260
0)
#1265
1)
#1270
0)
#1275
1)
#1280
0)
#1285
1)
#1290
0)
#1295
1)
#1300
0)
1+
b1 ,
b1 .
#1305
b100 !
b100 \
b100 ]
1)
#1310
0)
#1315
b1110111 "
b1110111 Z
b101 !
b101 \
b101 ]
b1 i
b1 e
1)
#1320
0)
#1325
1)
#1330
0)
#1335
1)
#1340
0)
#1345
b11 !
b11 \
b11 ]
1)
0+
#1350
0)
#1355
1)
#1360
0)
#1365
1)
#1370
0)
#1375
1)
#1380
0)
#1385
1)
#1390
0)
1+
#1395
b100 !
b100 \
b100 ]
1)
#1400
0)
#1405
b1110111 #
b1110111 Y
b1 "
b1 Z
b101 !
b101 \
b101 ]
b10 i
b1 f
1)
#1410
0)
#1415
1)
#1420
0)
#1425
1)
#1430
0)
#1435
b11 !
b11 \
b11 ]
1)
0+
#1440
0)
#1445
1)
#1450
0)
#1455
1)
#1460
0)
#1465
1)
#1470
0)
#1475
1)
#1480
0)
1+
#1485
b100 !
b100 \
b100 ]
1)
#1490
0)
#1495
b1110111 $
b1110111 X
b1 #
b1 Y
b101 !
b101 \
b101 ]
b11 i
b1 g
1)
#1500
0)
#1505
1)
#1510
0)
#1515
1)
#1520
0)
#1525
b11 !
b11 \
b11 ]
1)
0+
#1530
0)
#1535
1)
#1540
0)
#1545
1)
#1550
0)
1*
#1555
1)
#1560
0)
#1565
1)
#1570
0)
#1575
1)
0*
#1580
0)
#1585
1)
#1590
0)
#1595
1)
#1600
0)
#1605
1)
#1610
0)
#1615
1)
#1620
0)
1+
#1625
b100 !
b100 \
b100 ]
1)
#1630
0)
#1635
b101 !
b101 \
b101 ]
b0 i
b1 h
1)
#1640
0)
#1645
1)
#1650
0)
#1655
1)
#1660
0)
#1665
b110 !
b110 \
b110 ]
1)
0+
#1670
0)
#1675
b1110111 %
b1110111 W
b1 $
b1 X
b1110011 #
b1110011 Y
b111 !
b111 \
b111 ]
b1110111 [
1l
1)
#1680
0)
#1685
b1001111 %
b1001111 W
b111000 #
b111000 Y
b1000 !
b1000 \
b1000 ]
1l
1)
#1690
0)
#1695
b1001 !
b1001 \
b1001 ]
b0 b
b0 a
b0 `
b0 _
0l
1)
#1700
0)
#1705
1)
#1710
0)
#1715
1)
#1720
0)
#1725
1)
#1730
0)
#1735
1)
#1740
0)
#1745
1)
#1750
0)
#1755
1)
#1760
0)
#1765
1)
#1770
0)
#1775
1)
#1780
0)
b111 ,
b111 .
#1785
1)
#1790
0)
#1795
1)
#1800
0)
#1805
1)
#1810
0)
#1815
1)
#1820
0)
#1825
b1010 !
b1010 \
b1010 ]
1)
1*
#1830
0)
#1835
b111110 "
b111110 Z
b1011 !
b1011 \
b1011 ]
b1 c
b111 _
1)
#1840
0)
#1845
1)
#1850
0)
#1855
1)
#1860
0)
#1865
1)
#1870
0)
0*
#1875
b1001 !
b1001 \
b1001 ]
1)
#1880
0)
#1885
1)
#1890
0)
#1895
1)
#1900
0)
#1905
1)
#1910
0)
#1915
b1010 !
b1010 \
b1010 ]
1)
1*
#1920
0)
#1925
b111110 #
b111110 Y
b1011 !
b1011 \
b1011 ]
b10 c
b111 `
1)
#1930
0)
#1935
1)
#1940
0)
#1945
1)
#1950
0)
#1955
1)
#1960
0)
0*
#1965
b1001 !
b1001 \
b1001 ]
1)
#1970
0)
#1975
1)
#1980
0)
#1985
1)
#1990
0)
#1995
1)
#2000
0)
#2005
b1010 !
b1010 \
b1010 ]
1)
1*
#2010
0)
#2015
b111110 $
b111110 X
b1011 !
b1011 \
b1011 ]
b11 c
b111 a
1)
#2020
0)
#2025
1)
#2030
0)
#2035
1)
#2040
0)
#2045
1)
#2050
0)
0*
#2055
b1001 !
b1001 \
b1001 ]
1)
#2060
0)
#2065
1)
#2070
0)
#2075
1)
#2080
0)
#2085
1)
#2090
0)
#2095
b1010 !
b1010 \
b1010 ]
1)
1*
#2100
0)
#2105
b1011 !
b1011 \
b1011 ]
b0 c
b111 b
1)
#2110
0)
#2115
1)
#2120
0)
#2125
1)
#2130
0)
#2135
1)
#2140
0)
#2145
b1100 !
b1100 \
b1100 ]
1)
0*
#2150
0)
#2155
b1101 !
b1101 \
b1101 ]
b0 ^
1)
#2160
0)
#2165
b1110 !
b1110 \
b1110 ]
1)
#2170
0)
#2175
b1111 !
b1111 \
b1111 ]
1)
#2180
0)
#2185
b10000 !
b10000 \
b10000 ]
1)
#2190
0)
#2195
b1110111 %
b1110111 W
b1110111 $
b1110111 X
b1110111 #
b1110111 Y
b1110111 "
b1110111 Z
b10001 !
b10001 \
b10001 ]
1l
1)
1*
#2200
0)
#2205
b1011011 %
b1011011 W
b1 $
b1 X
b111000 #
b111000 Y
b1000 !
b1000 \
b10 d
b1000 ]
1l
1)
#2210
0)
#2215
b1001 !
b1001 \
b1001 ]
b0 b
b0 a
b0 `
b0 _
0l
1)
#2220
0)
#2225
b1010 !
b1010 \
b1010 ]
1)
#2230
0)
#2235
b111110 "
b111110 Z
b1011 !
b1011 \
b1011 ]
b1 c
b111 _
1)
0*
#2240
0)
#2245
b1001 !
b1001 \
b1001 ]
1)
